<?xml version="1.0" encoding="utf-8"?>
<!-- Generator: Adobe Illustrator 19.1.1, SVG Export Plug-In . SVG Version: 6.00 Build 0)  -->
<svg version="1.1" id="Layer_1" xmlns="http://www.w3.org/2000/svg" xmlns:xlink="http://www.w3.org/1999/xlink" x="0px" y="0px"
	 viewBox="0 0 612 612" style="enable-background:new 0 0 612 612;" xml:space="preserve">
<style type="text/css">
	.st0{font-family:'ProximaNova-Regular';}
	.st1{font-size:141.3981px;}
	.st2{fill:none;stroke:#000000;stroke-width:42;stroke-miterlimit:10;}
	.st3{fill:none;stroke:#000000;stroke-width:43;stroke-miterlimit:10;}
</style>
<text transform="matrix(1 0 0 1 81.7225 326.8149)" class="st0 st1">Base 10</text>
<line class="st2" x1="75.6" y1="341.6" x2="611" y2="341.6"/>
<rect y="1" class="st3" width="612" height="612"/>
</svg>
